[{"id":1,"first_name":"Irene","last_name":"Jenk","email":"ijenk0@blogs.com","password":"kGvmw5r"},
{"id":2,"first_name":"Baryram","last_name":"Blenkinsop","email":"bblenkinsop1@simplemachines.org","password":"lHpGwdO2gwA"},
{"id":3,"first_name":"Andreas","last_name":"Lahy","email":"alahy2@tuttocitta.it","password":"BThFIkE"},
{"id":4,"first_name":"Sonja","last_name":"Jillions","email":"sjillions3@wiley.com","password":"ExN90zZf"},
{"id":5,"first_name":"Derward","last_name":"Shropsheir","email":"dshropsheir4@biblegateway.com","password":"yYQhjL6MYIv"},
{"id":6,"first_name":"Hewett","last_name":"Paxforde","email":"hpaxforde5@discuz.net","password":"SC2B6PdsSFz"},
{"id":7,"first_name":"Daphna","last_name":"Dewi","email":"ddewi6@instagram.com","password":"FQtw1hPR"},
{"id":8,"first_name":"Jenifer","last_name":"Sturte","email":"jsturte7@cisco.com","password":"EWkrg4PZx"},
{"id":9,"first_name":"Boote","last_name":"Friese","email":"bfriese8@google.com.au","password":"mhh1PCm"},
{"id":10,"first_name":"Quentin","last_name":"Goulding","email":"qgoulding9@archive.org","password":"7cOTBJt"}]